@startuml
class Version {
    -major : int
    -minor : int
    -patch : int
    -preRelease : String
    -buildMetadata : String
    ==
    +getters() for fields
    +compareTo(Version)
    --
    {static} +of(String)
    {static} +of(int, int, int, String, String)
    {static} +of(int, int, int, String)
    {static} +of(int, int, int)
}

"Comparable<Version>" <|-- Version
Serializable <|-- Version
@enduml